name;degree;in_degree;out_degree;betweenness;closeness;pagerank;kl_auth;kl_hub;connectivity;avg_connectivity;in/out;followers;followed
64911;169;116;53;3659326.5700248177;0.30398029976558616;0.009133073753699176;0.02529017299845473;0.2304784716546334;107;38.149532710280376;2.188679245283019;98;205
677;1805;1790;15;2858487.823620331;0.33211744923037123;0.027014304041275607;0.07367026905104425;0.006429423734259324;1521;4.9362261669953975;119.33333333333333;3398;33
88;4046;4030;16;4289025.420017732;0.3802162002073153;0.07633786853552099;1.0;0.06580333905410421;2128;6.667763157894737;251.875;3247;60
220;551;551;0;0.0;0.27150833262837326;0.006872124542011779;0.003735971297823356;4.744509052943896e-15;514;2.007782101167315;2.4814833946811433e+18;2399;11
103447;89;30;59;287802.093800248;0.29603837107411335;0.0004801167839972697;0.010924213093847425;0.07246080579334367;29;118.0;0.5084745762711864;59;130
13813;379;378;1;0.0;0.33290978398983484;0.12662591642478785;0.17810703781835618;0.001549921693882957;223;31.955156950672645;378.0;378;17
13808;325;293;32;4820274.058784552;0.3210382855285203;0.008980699544975088;0.1104428585383428;0.020324052230507664;194;31.963917525773194;9.15625;390;115
3549;248;245;3;424930.40962909284;0.26283678650397185;0.002855184560529902;0.0021698418978007314;0.0009679793632469398;239;3.1297071129707112;81.66666666666667;1914;44
349;270;265;5;267379.21301736473;0.2946725732779397;0.002311518374439527;0.014361464922032335;0.0007880623185859041;224;13.754464285714286;53.0;1230;33
317;182;181;1;8239.0;0.24172472227452457;0.008576457739024379;0.00045225411740680685;5.4273433915841306e-08;171;1.3391812865497077;181.0;1832;3
1988;342;340;2;354148.3225832141;0.28632602538082386;0.0032671613298059774;0.059966134779348396;9.451392058334875e-05;244;8.647540983606557;170.0;1860;192
9704;67;57;10;248636.50599590788;0.2947334588364939;0.000650216981714526;0.05351872742823604;0.009191984711082167;34;87.0;5.7;135;10
3998;782;653;129;2138665.307122469;0.33817137739377817;0.03057255778504589;0.39311468477326444;0.898866655788303;337;24.367952522255194;5.062015503875969;432;2
11991;141;103;38;182808.2291123693;0.3008953264894764;0.000702363124759272;0.07032794723300753;0.045317826473735286;61;62.83606557377049;2.710526315789474;306;71
39885;55;33;22;196805.82977918844;0.2954524532817822;0.0004986109497557218;0.04900724794433635;0.034414377243751404;23;127.95652173913044;1.5;67;64
9021;252;171;81;1227836.5419112693;0.24953350956305395;0.0020869947990828012;0.002395523701509252;0.00025533443500169197;75;9.28;2.111111111111111;100;122
5226;182;166;16;362266.8187998595;0.3103064874794547;0.0013685899668113262;0.04731326114670643;0.034082577518220906;127;37.67716535433071;10.375;909;221
16801;69;58;11;54771.7798943926;0.2919253246014962;0.0006689306345728917;0.041130481203277995;0.03215553967032475;32;99.71875;5.2727272727272725;52;68
