name;degree;in_degree;out_degree;betweenness;closeness;pagerank;kl_auth;kl_hub;connectivity;avg_connectivity;in/out;followers;followed
64911;145;46;99;849635,6568662573;0,00309664539428674;0,022687126553598874;0,020235801418867702;0,737413076891477;62;47,983870967741936;0,46464646464646464;98;205
677;814;804;10;286576,98811349383;0,003099713436488713;0,014658112970199961;0,27739795222812264;0,13677303947127414;499;8,677354709418838;80,4;3398;33
88;1843;1840;3;704921,9884888505;0,003102140881688886;0,06512605372321019;1,0;0,002282175840037048;1036;6,636100386100386;613,3333333333334;3247;60
220;59;59;0;0,0;0,0030919672683740237;0,0013009260087881915;0,008022556431618404;0,0;53;5,490566037735849;2,6571237801485926e+17;2399;11
103447;102;54;48;431578,9357335038;0,003095579521412867;0,004946651180877167;0,032391200765667594;0,19364517163660563;39;49,53846153846154;1,125;59;130
13813;148;129;19;45681,23829896947;0,0030934465094808925;0,003431720717505412;0,13337433846175017;0,029047052743002417;70;15,285714285714286;6,7894736842105265;378;17
13808;148;143;5;65151,954406646604;0,0030972672029579407;0,009771268730320987;0,040031598797554066;0,048619012875396606;109;24,61467889908257;28,6;390;115
3549;41;41;0;0,0;0,0030917352910217618;0,002584800530632034;0,007233641621214213;0,0;35;8,914285714285715;1,8464758472219034e+17;1914;44
349;400;399;1;76691,38237760095;0,003096565515183938;0,007390398102051047;0,11580717101389229;0,000322462103553559;275;7,9381818181818184;399,0;1230;33
317;10;10;0;0,0;0,0030878315280907674;0,00036265156509396904;0,0014012578239698062;0,0;9;4,333333333333333;4,503599627370496e+16;1832;3
1988;712;710;2;197696,522132994;0,0030974027139574955;0,01342138699442192;0,2809316859882497;0,0011314989440348432;374;7,617647058823529;355,0;1860;192
9704;47;44;3;4733,259166188492;0,0030950711468410042;0,002455030885348536;0,02071490735379872;0,08940236535319723;28;53,964285714285715;14,666666666666666;135;10
3998;390;383;7;86532,48292483605;0,003097572988176269;0,02121755794047184;0,35043676282248976;0,09143693195523651;172;19,61627906976744;54,714285714285715;432;2
11991;156;136;20;76171,25090196315;0,003096765220668356;0,012187992298027243;0,06942045585799328;0,1657807815439947;93;31,129032258064516;6,8;306;71
39885;135;80;55;289091,13343437365;0,003096258192720485;0,01102432896644864;0,0508657167528292;0,22361638624344418;62;43,04838709677419;1,4545454545454546;67;64
9021;215;194;21;184293,6496871468;0,0030919326426785253;0,0024109716882089725;0,04414662243535555;0,00646049702095118;65;10,430769230769231;9,238095238095237;100;122
5226;222;220;2;78745,23415150563;0,003095458051554344;0,006018827661747225;0,05425110431113033;0,0025509957891455843;164;10,768292682926829;110,0;909;221
16801;69;57;12;12507,895355045242;0,0030957131492686503;0,0029061861348159946;0,025435183761105155;0,07249340863127136;44;47,38636363636363;4,75;52;68
